{
  "project_info": {
    "project_number": "148293185264",
    "firebase_url": "https://varun-travels-default-rtdb.firebaseio.com",
    "project_id": "varun-travels",
    "storage_bucket": "varun-travels.appspot.com"
  },
  "client": [
    {
      "client_info": {
        "mobilesdk_app_id": "1:148293185264:android:2f9fa2e5196c4cb8bf9c35",
        "android_client_info": {
          "package_name": "com.varuntravelsagency.customer"
        }
      },
      "oauth_client": [
        {
          "client_id": "148293185264-7f98fu85nddrm6ulgk2ifvk54vlhtrkd.apps.googleusercontent.com",
          "client_type": 1,
          "android_info": {
            "package_name": "com.varuntravelsagency.customer",
            "certificate_hash": "8a61787e23f517a50e43687b02466b4fa6b53530"
          }
        },
        {
          "client_id": "148293185264-03g94c638m3ghjv3mdbuslu82uab9a83.apps.googleusercontent.com",
          "client_type": 3
        }
      ],
      "api_key": [
        {
          "current_key": "AIzaSyBaKD2lxpdz17OYjtdekTGQkCAJ59CKSd8"
        }
      ],
      "services": {
        "appinvite_service": {
          "other_platform_oauth_client": [
            {
              "client_id": "148293185264-03g94c638m3ghjv3mdbuslu82uab9a83.apps.googleusercontent.com",
              "client_type": 3
            }
          ]
        }
      }
    }
  ],
  "configuration_version": "1"
}